%YAML 1.1
%TAG !u! tag:unity3d.com,2011:
--- !u!114 &11400000
MonoBehaviour:
  m_ObjectHideFlags: 0
  m_CorrespondingSourceObject: {fileID: 0}
  m_PrefabInstance: {fileID: 0}
  m_PrefabAsset: {fileID: 0}
  m_GameObject: {fileID: 0}
  m_Enabled: 1
  m_EditorHideFlags: 0
  m_Script: {fileID: 11500000, guid: 26dda2c1a795e0342bd7f233de616754, type: 3}
  m_Name: Setting
  m_EditorClassIdentifier: 
  preset: {fileID: 11400000, guid: 93de15978e25f90449da5e8d76f72a06, type: 2}
