%YAML 1.1
%TAG !u! tag:unity3d.com,2011:
--- !u!114 &11400000
MonoBehaviour:
  m_ObjectHideFlags: 0
  m_CorrespondingSourceObject: {fileID: 0}
  m_PrefabInstance: {fileID: 0}
  m_PrefabAsset: {fileID: 0}
  m_GameObject: {fileID: 0}
  m_Enabled: 1
  m_EditorHideFlags: 0
  m_Script: {fileID: 11500000, guid: 3e2052eaec36e40e2986cfc068480f2f, type: 3}
  m_Name: victory
  m_EditorClassIdentifier: 
  clip: {fileID: 8300000, guid: 6c3e66f3279534c3ea4a0a2a48d5b2bb, type: 3}
