%YAML 1.1
%TAG !u! tag:unity3d.com,2011:
--- !u!1 &8106484655007775172
GameObject:
  m_ObjectHideFlags: 0
  m_CorrespondingSourceObject: {fileID: 0}
  m_PrefabInstance: {fileID: 0}
  m_PrefabAsset: {fileID: 0}
  serializedVersion: 6
  m_Component:
  - component: {fileID: 6536037774428022543}
  - component: {fileID: 6126017449925922624}
  - component: {fileID: 7134630327280839080}
  - component: {fileID: 3549143446575501037}
  - component: {fileID: 5760411136981299057}
  - component: {fileID: 5185026059047525728}
  - component: {fileID: 5473219807982853541}
  m_Layer: 0
  m_Name: Money 1
  m_TagString: money
  m_Icon: {fileID: 0}
  m_NavMeshLayer: 0
  m_StaticEditorFlags: 0
  m_IsActive: 1
--- !u!4 &6536037774428022543
Transform:
  m_ObjectHideFlags: 0
  m_CorrespondingSourceObject: {fileID: 0}
  m_PrefabInstance: {fileID: 0}
  m_PrefabAsset: {fileID: 0}
  m_GameObject: {fileID: 8106484655007775172}
  m_LocalRotation: {x: 0.5, y: 0.5, z: 0.5, w: 0.5}
  m_LocalPosition: {x: 0, y: 0.69, z: 0}
  m_LocalScale: {x: 589.3742, y: 589.3741, z: 589.3741}
  m_Children:
  - {fileID: 5645202808876800535}
  m_Father: {fileID: 0}
  m_RootOrder: 0
  m_LocalEulerAnglesHint: {x: 0, y: 90, z: 90}
--- !u!33 &6126017449925922624
MeshFilter:
  m_ObjectHideFlags: 0
  m_CorrespondingSourceObject: {fileID: 0}
  m_PrefabInstance: {fileID: 0}
  m_PrefabAsset: {fileID: 0}
  m_GameObject: {fileID: 8106484655007775172}
  m_Mesh: {fileID: -2929563531361107545, guid: 4b232480b0349cd4481d6056f15c9101, type: 3}
--- !u!23 &7134630327280839080
MeshRenderer:
  m_ObjectHideFlags: 0
  m_CorrespondingSourceObject: {fileID: 0}
  m_PrefabInstance: {fileID: 0}
  m_PrefabAsset: {fileID: 0}
  m_GameObject: {fileID: 8106484655007775172}
  m_Enabled: 1
  m_CastShadows: 1
  m_ReceiveShadows: 1
  m_DynamicOccludee: 1
  m_MotionVectors: 1
  m_LightProbeUsage: 1
  m_ReflectionProbeUsage: 1
  m_RayTracingMode: 2
  m_RenderingLayerMask: 1
  m_RendererPriority: 0
  m_Materials:
  - {fileID: 2100000, guid: 42498d04ed20ece498f42c928f595428, type: 2}
  m_StaticBatchInfo:
    firstSubMesh: 0
    subMeshCount: 0
  m_StaticBatchRoot: {fileID: 0}
  m_ProbeAnchor: {fileID: 0}
  m_LightProbeVolumeOverride: {fileID: 0}
  m_ScaleInLightmap: 1
  m_ReceiveGI: 1
  m_PreserveUVs: 0
  m_IgnoreNormalsForChartDetection: 0
  m_ImportantGI: 0
  m_StitchLightmapSeams: 1
  m_SelectedEditorRenderState: 3
  m_MinimumChartSize: 4
  m_AutoUVMaxDistance: 0.5
  m_AutoUVMaxAngle: 89
  m_LightmapParameters: {fileID: 0}
  m_SortingLayerID: 0
  m_SortingLayer: 0
  m_SortingOrder: 0
--- !u!114 &3549143446575501037
MonoBehaviour:
  m_ObjectHideFlags: 0
  m_CorrespondingSourceObject: {fileID: 0}
  m_PrefabInstance: {fileID: 0}
  m_PrefabAsset: {fileID: 0}
  m_GameObject: {fileID: 8106484655007775172}
  m_Enabled: 1
  m_EditorHideFlags: 0
  m_Script: {fileID: 11500000, guid: 2fc4bf03caf3dbe418906fe20cf6630a, type: 3}
  m_Name: 
  m_EditorClassIdentifier: 
  spinMod: 2
--- !u!65 &5760411136981299057
BoxCollider:
  m_ObjectHideFlags: 0
  m_CorrespondingSourceObject: {fileID: 0}
  m_PrefabInstance: {fileID: 0}
  m_PrefabAsset: {fileID: 0}
  m_GameObject: {fileID: 8106484655007775172}
  m_Material: {fileID: 0}
  m_IsTrigger: 0
  m_Enabled: 1
  serializedVersion: 2
  m_Size: {x: 0.001050815, y: 0.0020237989, z: 0.00042975805}
  m_Center: {x: 0.000008512143, y: -0.0000031368104, z: 0.00021918319}
--- !u!114 &5185026059047525728
MonoBehaviour:
  m_ObjectHideFlags: 0
  m_CorrespondingSourceObject: {fileID: 0}
  m_PrefabInstance: {fileID: 0}
  m_PrefabAsset: {fileID: 0}
  m_GameObject: {fileID: 8106484655007775172}
  m_Enabled: 1
  m_EditorHideFlags: 0
  m_Script: {fileID: 11500000, guid: 912afedfba2f9a64b917ddf146ce1020, type: 3}
  m_Name: 
  m_EditorClassIdentifier: 
  CollectMoney: {fileID: 5645202808891989893}
--- !u!82 &5473219807982853541
AudioSource:
  m_ObjectHideFlags: 0
  m_CorrespondingSourceObject: {fileID: 0}
  m_PrefabInstance: {fileID: 0}
  m_PrefabAsset: {fileID: 0}
  m_GameObject: {fileID: 8106484655007775172}
  m_Enabled: 1
  serializedVersion: 4
  OutputAudioMixerGroup: {fileID: 0}
  m_audioClip: {fileID: 8300000, guid: d105bf18276bc3e48a90f0d600dd7a75, type: 3}
  m_PlayOnAwake: 0
  m_Volume: 1
  m_Pitch: 1
  Loop: 0
  Mute: 0
  Spatialize: 0
  SpatializePostEffects: 0
  Priority: 128
  DopplerLevel: 1
  MinDistance: 1
  MaxDistance: 500
  Pan2D: 0
  rolloffMode: 0
  BypassEffects: 0
  BypassListenerEffects: 0
  BypassReverbZones: 0
  rolloffCustomCurve:
    serializedVersion: 2
    m_Curve:
    - serializedVersion: 3
      time: 0
      value: 1
      inSlope: 0
      outSlope: 0
      tangentMode: 0
      weightedMode: 0
      inWeight: 0.33333334
      outWeight: 0.33333334
    - serializedVersion: 3
      time: 1
      value: 0
      inSlope: 0
      outSlope: 0
      tangentMode: 0
      weightedMode: 0
      inWeight: 0.33333334
      outWeight: 0.33333334
    m_PreInfinity: 2
    m_PostInfinity: 2
    m_RotationOrder: 4
  panLevelCustomCurve:
    serializedVersion: 2
    m_Curve:
    - serializedVersion: 3
      time: 0
      value: 0
      inSlope: 0
      outSlope: 0
      tangentMode: 0
      weightedMode: 0
      inWeight: 0.33333334
      outWeight: 0.33333334
    m_PreInfinity: 2
    m_PostInfinity: 2
    m_RotationOrder: 4
  spreadCustomCurve:
    serializedVersion: 2
    m_Curve:
    - serializedVersion: 3
      time: 0
      value: 0
      inSlope: 0
      outSlope: 0
      tangentMode: 0
      weightedMode: 0
      inWeight: 0.33333334
      outWeight: 0.33333334
    m_PreInfinity: 2
    m_PostInfinity: 2
    m_RotationOrder: 4
  reverbZoneMixCustomCurve:
    serializedVersion: 2
    m_Curve:
    - serializedVersion: 3
      time: 0
      value: 1
      inSlope: 0
      outSlope: 0
      tangentMode: 0
      weightedMode: 0
      inWeight: 0.33333334
      outWeight: 0.33333334
    m_PreInfinity: 2
    m_PostInfinity: 2
    m_RotationOrder: 4
--- !u!1001 &5645202808876895271
PrefabInstance:
  m_ObjectHideFlags: 0
  serializedVersion: 2
  m_Modification:
    m_TransformParent: {fileID: 6536037774428022543}
    m_Modifications:
    - target: {fileID: 152914, guid: 39f586f40e7d928499bfe946ffb04ad5, type: 3}
      propertyPath: m_IsActive
      value: 0
      objectReference: {fileID: 0}
    - target: {fileID: 189350, guid: 39f586f40e7d928499bfe946ffb04ad5, type: 3}
      propertyPath: m_IsActive
      value: 0
      objectReference: {fileID: 0}
    - target: {fileID: 190236, guid: 39f586f40e7d928499bfe946ffb04ad5, type: 3}
      propertyPath: m_Name
      value: DollarbillBlast
      objectReference: {fileID: 0}
    - target: {fileID: 190236, guid: 39f586f40e7d928499bfe946ffb04ad5, type: 3}
      propertyPath: m_IsActive
      value: 1
      objectReference: {fileID: 0}
    - target: {fileID: 431664, guid: 39f586f40e7d928499bfe946ffb04ad5, type: 3}
      propertyPath: m_RootOrder
      value: 0
      objectReference: {fileID: 0}
    - target: {fileID: 431664, guid: 39f586f40e7d928499bfe946ffb04ad5, type: 3}
      propertyPath: m_LocalScale.x
      value: 0.0051703597
      objectReference: {fileID: 0}
    - target: {fileID: 431664, guid: 39f586f40e7d928499bfe946ffb04ad5, type: 3}
      propertyPath: m_LocalScale.y
      value: 0.0051703597
      objectReference: {fileID: 0}
    - target: {fileID: 431664, guid: 39f586f40e7d928499bfe946ffb04ad5, type: 3}
      propertyPath: m_LocalScale.z
      value: 0.0051703597
      objectReference: {fileID: 0}
    - target: {fileID: 431664, guid: 39f586f40e7d928499bfe946ffb04ad5, type: 3}
      propertyPath: m_LocalPosition.x
      value: 0
      objectReference: {fileID: 0}
    - target: {fileID: 431664, guid: 39f586f40e7d928499bfe946ffb04ad5, type: 3}
      propertyPath: m_LocalPosition.y
      value: 0
      objectReference: {fileID: 0}
    - target: {fileID: 431664, guid: 39f586f40e7d928499bfe946ffb04ad5, type: 3}
      propertyPath: m_LocalPosition.z
      value: 0
      objectReference: {fileID: 0}
    - target: {fileID: 431664, guid: 39f586f40e7d928499bfe946ffb04ad5, type: 3}
      propertyPath: m_LocalRotation.w
      value: 0.7071067
      objectReference: {fileID: 0}
    - target: {fileID: 431664, guid: 39f586f40e7d928499bfe946ffb04ad5, type: 3}
      propertyPath: m_LocalRotation.x
      value: -0.7071068
      objectReference: {fileID: 0}
    - target: {fileID: 431664, guid: 39f586f40e7d928499bfe946ffb04ad5, type: 3}
      propertyPath: m_LocalRotation.y
      value: 0
      objectReference: {fileID: 0}
    - target: {fileID: 431664, guid: 39f586f40e7d928499bfe946ffb04ad5, type: 3}
      propertyPath: m_LocalRotation.z
      value: 0
      objectReference: {fileID: 0}
    - target: {fileID: 431664, guid: 39f586f40e7d928499bfe946ffb04ad5, type: 3}
      propertyPath: m_LocalEulerAnglesHint.x
      value: -90
      objectReference: {fileID: 0}
    - target: {fileID: 431664, guid: 39f586f40e7d928499bfe946ffb04ad5, type: 3}
      propertyPath: m_LocalEulerAnglesHint.y
      value: 0
      objectReference: {fileID: 0}
    - target: {fileID: 431664, guid: 39f586f40e7d928499bfe946ffb04ad5, type: 3}
      propertyPath: m_LocalEulerAnglesHint.z
      value: 0
      objectReference: {fileID: 0}
    - target: {fileID: 19803366, guid: 39f586f40e7d928499bfe946ffb04ad5, type: 3}
      propertyPath: playOnAwake
      value: 0
      objectReference: {fileID: 0}
    - target: {fileID: 19803366, guid: 39f586f40e7d928499bfe946ffb04ad5, type: 3}
      propertyPath: InitialModule.startRotationX.minMaxState
      value: 3
      objectReference: {fileID: 0}
    - target: {fileID: 19803366, guid: 39f586f40e7d928499bfe946ffb04ad5, type: 3}
      propertyPath: InitialModule.startRotationY.minMaxState
      value: 3
      objectReference: {fileID: 0}
    - target: {fileID: 19813282, guid: 39f586f40e7d928499bfe946ffb04ad5, type: 3}
      propertyPath: playOnAwake
      value: 0
      objectReference: {fileID: 0}
    - target: {fileID: 19813282, guid: 39f586f40e7d928499bfe946ffb04ad5, type: 3}
      propertyPath: InitialModule.startSize.scalar
      value: 0.3
      objectReference: {fileID: 0}
    - target: {fileID: 19813282, guid: 39f586f40e7d928499bfe946ffb04ad5, type: 3}
      propertyPath: InitialModule.startSpeed.scalar
      value: 2
      objectReference: {fileID: 0}
    - target: {fileID: 19813282, guid: 39f586f40e7d928499bfe946ffb04ad5, type: 3}
      propertyPath: InitialModule.startSpeed.minScalar
      value: 1
      objectReference: {fileID: 0}
    - target: {fileID: 19813282, guid: 39f586f40e7d928499bfe946ffb04ad5, type: 3}
      propertyPath: EmissionModule.m_Bursts.Array.data[0].countCurve.scalar
      value: 4
      objectReference: {fileID: 0}
    - target: {fileID: 19867976, guid: 39f586f40e7d928499bfe946ffb04ad5, type: 3}
      propertyPath: playOnAwake
      value: 0
      objectReference: {fileID: 0}
    - target: {fileID: 19867976, guid: 39f586f40e7d928499bfe946ffb04ad5, type: 3}
      propertyPath: InitialModule.startSizeY.minMaxState
      value: 3
      objectReference: {fileID: 0}
    - target: {fileID: 19867976, guid: 39f586f40e7d928499bfe946ffb04ad5, type: 3}
      propertyPath: InitialModule.startSizeZ.minMaxState
      value: 3
      objectReference: {fileID: 0}
    - target: {fileID: 19867976, guid: 39f586f40e7d928499bfe946ffb04ad5, type: 3}
      propertyPath: InitialModule.startRotationX.minMaxState
      value: 3
      objectReference: {fileID: 0}
    - target: {fileID: 19867976, guid: 39f586f40e7d928499bfe946ffb04ad5, type: 3}
      propertyPath: InitialModule.startRotationY.minMaxState
      value: 3
      objectReference: {fileID: 0}
    - target: {fileID: 19907290, guid: 39f586f40e7d928499bfe946ffb04ad5, type: 3}
      propertyPath: m_Materials.Array.size
      value: 1
      objectReference: {fileID: 0}
    - target: {fileID: 19919932, guid: 39f586f40e7d928499bfe946ffb04ad5, type: 3}
      propertyPath: m_Materials.Array.size
      value: 1
      objectReference: {fileID: 0}
    - target: {fileID: 19967320, guid: 39f586f40e7d928499bfe946ffb04ad5, type: 3}
      propertyPath: m_Materials.Array.size
      value: 1
      objectReference: {fileID: 0}
    m_RemovedComponents: []
  m_SourcePrefab: {fileID: 100100000, guid: 39f586f40e7d928499bfe946ffb04ad5, type: 3}
--- !u!4 &5645202808876800535 stripped
Transform:
  m_CorrespondingSourceObject: {fileID: 431664, guid: 39f586f40e7d928499bfe946ffb04ad5,
    type: 3}
  m_PrefabInstance: {fileID: 5645202808876895271}
  m_PrefabAsset: {fileID: 0}
--- !u!198 &5645202808891989893 stripped
ParticleSystem:
  m_CorrespondingSourceObject: {fileID: 19813282, guid: 39f586f40e7d928499bfe946ffb04ad5,
    type: 3}
  m_PrefabInstance: {fileID: 5645202808876895271}
  m_PrefabAsset: {fileID: 0}
