%YAML 1.1
%TAG !u! tag:unity3d.com,2011:
--- !u!114 &11400000
MonoBehaviour:
  m_ObjectHideFlags: 0
  m_CorrespondingSourceObject: {fileID: 0}
  m_PrefabInstance: {fileID: 0}
  m_PrefabAsset: {fileID: 0}
  m_GameObject: {fileID: 0}
  m_Enabled: 1
  m_EditorHideFlags: 0
  m_Script: {fileID: 11500000, guid: d20ff8b01823342a59b12b7d21daaf23, type: 3}
  m_Name: Level_1
  m_EditorClassIdentifier: 
  levelPrefab: {fileID: 6872969803144605694, guid: c5db6500fe59a2042b437038a0a984ca,
    type: 3}
